""	"RunningTotal"	"CNV_length"	"mean_normalised_coverage"	"First_ORF_in_CNV"	"exp_name"
"1"	"1"	4	0.0116685	"PF3D7_0828800"	"MolMicro-ACT451840-1cl1"
"2"	"2"	5	0.0155164	"PF3D7_0218700"	"MolMicro-7ACT451840-2cl2"
"3"	"3"	4	0.01171775	"PF3D7_0307100"	"MolMicro-7ACT451840-2cl2"
"4"	"4"	4	0.012552	"PF3D7_0505800"	"MolMicro-7ACT451840-2cl2"
"5"	"5"	4	0.0095825	"PF3D7_0506900"	"MolMicro-7ACT451840-2cl2"
"6"	"6"	4	0.0135635	"PF3D7_0530400"	"MolMicro-7ACT451840-2cl2"
"7"	"7"	4	0.00661675	"PF3D7_0612600"	"MolMicro-7ACT451840-2cl2"
"8"	"8"	4	0.019121	"PF3D7_0622800"	"MolMicro-7ACT451840-2cl2"
"9"	"9"	4	0.01868875	"PF3D7_0713600"	"MolMicro-7ACT451840-2cl2"
"10"	"10"	5	0.0147092	"PF3D7_0729400"	"MolMicro-7ACT451840-2cl2"
"11"	"11"	4	0.004477	"PF3D7_0800800"	"MolMicro-7ACT451840-2cl2"
"12"	"12"	4	0.01624025	"PF3D7_0813200"	"MolMicro-7ACT451840-2cl2"
"13"	"13"	4	0.011901	"PF3D7_0829500"	"MolMicro-7ACT451840-2cl2"
"14"	"14"	5	0.0150218	"PF3D7_0927300"	"MolMicro-7ACT451840-2cl2"
"15"	"15"	4	0.008257	"PF3D7_1026500"	"MolMicro-7ACT451840-2cl2"
"16"	"16"	4	0.0114185	"PF3D7_1028000"	"MolMicro-7ACT451840-2cl2"
"17"	"17"	4	0.0124055	"PF3D7_1102200"	"MolMicro-7ACT451840-2cl2"
"18"	"18"	4	0.0124635	"PF3D7_1135300"	"MolMicro-7ACT451840-2cl2"
"19"	"19"	4	0.015825	"PF3D7_1144400"	"MolMicro-7ACT451840-2cl2"
"20"	"20"	4	0.01550175	"PF3D7_1210700"	"MolMicro-7ACT451840-2cl2"
"21"	"21"	4	0.01265125	"PF3D7_1224700"	"MolMicro-7ACT451840-2cl2"
"22"	"22"	4	0.00788725	"PF3D7_1232100"	"MolMicro-7ACT451840-2cl2"
"23"	"23"	4	0.008697	"PF3D7_1331600"	"MolMicro-7ACT451840-2cl2"
"24"	"24"	4	0.00810575	"PF3D7_1335800"	"MolMicro-7ACT451840-2cl2"
"25"	"25"	4	0.0144295	"PF3D7_1369100"	"MolMicro-7ACT451840-2cl2"
"26"	"26"	4	0.00704575	"PF3D7_1403400"	"MolMicro-7ACT451840-2cl2"
"27"	"27"	5	0.01353	"PF3D7_1447100"	"MolMicro-7ACT451840-2cl2"
"28"	"28"	4	0.010391	"PF3D7_1473200"	"MolMicro-7ACT451840-2cl2"
"29"	"29"	4	0.01031425	"PF3D7_1474500"	"MolMicro-7ACT451840-2cl2"
"30"	"30"	4	0.00954475	"PF3D7_1476700"	"MolMicro-7ACT451840-2cl2"
"31"	"31"	4	0.0163485	"PF3D7_0111600"	"MolMicro-ACT451840-5cl1"
"32"	"32"	4	0.03359125	"PF3D7_0508100"	"MolMicro-ACT451840-5cl1"
"33"	"33"	4	0.036501	"PF3D7_0610600"	"MolMicro-ACT451840-5cl1"
"34"	"34"	4	0.04321	"PF3D7_0703600"	"MolMicro-ACT451840-5cl1"
"35"	"35"	4	0.00942325	"PF3D7_0724000"	"MolMicro-ACT451840-5cl1"
"36"	"36"	4	0.01291875	"PF3D7_0806000"	"MolMicro-ACT451840-5cl1"
"37"	"37"	4	0.01605325	"PF3D7_0903700"	"MolMicro-ACT451840-5cl1"
"38"	"38"	4	0.0177535	"PF3D7_0907000"	"MolMicro-ACT451840-5cl1"
"39"	"39"	4	0.0108515	"PF3D7_0915200"	"MolMicro-ACT451840-5cl1"
"40"	"40"	4	0.0150125	"PF3D7_1003600"	"MolMicro-ACT451840-5cl1"
"41"	"41"	4	0.0135935	"PF3D7_1004900"	"MolMicro-ACT451840-5cl1"
"42"	"42"	4	0.005789	"PF3D7_1235700"	"MolMicro-ACT451840-5cl1"
"43"	"43"	4	0.01213925	"PF3D7_1323300"	"MolMicro-ACT451840-5cl1"
"44"	"44"	6	0.0138961666666667	"PF3D7_1340600"	"MolMicro-ACT451840-5cl1"
"45"	"45"	5	0.0115688	"PF3D7_0113700"	"MolMicro-ACT451840-6cl2"
"46"	"46"	4	0.0086855	"PF3D7_0202600.1"	"MolMicro-ACT451840-6cl2"
"47"	"47"	4	0.01537925	"PF3D7_0203400"	"MolMicro-ACT451840-6cl2"
"48"	"48"	4	0.01023075	"PF3D7_0214300"	"MolMicro-ACT451840-6cl2"
"49"	"49"	4	0.01484775	"PF3D7_0308000"	"MolMicro-ACT451840-6cl2"
"50"	"50"	4	0.00911875	"PF3D7_0312300"	"MolMicro-ACT451840-6cl2"
"51"	"51"	4	0.00847475	"PF3D7_0413700"	"MolMicro-ACT451840-6cl2"
"52"	"52"	4	0.00906425	"PF3D7_0520900"	"MolMicro-ACT451840-6cl2"
"53"	"53"	6	0.0217425	"PF3D7_0607400"	"MolMicro-ACT451840-6cl2"
"54"	"54"	4	0.02466725	"PF3D7_0615300"	"MolMicro-ACT451840-6cl2"
"55"	"55"	4	0.01330775	"PF3D7_0616100"	"MolMicro-ACT451840-6cl2"
"56"	"56"	4	0.01477425	"PF3D7_0625500"	"MolMicro-ACT451840-6cl2"
"57"	"57"	4	0.0201005	"PF3D7_0706300"	"MolMicro-ACT451840-6cl2"
"58"	"58"	4	0.01340175	"PF3D7_0710100"	"MolMicro-ACT451840-6cl2"
"59"	"59"	7	0.0231742857142857	"PF3D7_0715100"	"MolMicro-ACT451840-6cl2"
"60"	"60"	4	0.0221595	"PF3D7_0731200"	"MolMicro-ACT451840-6cl2"
"61"	"61"	4	0.0154265	"PF3D7_0803600"	"MolMicro-ACT451840-6cl2"
"62"	"62"	4	0.018799	"PF3D7_0811600"	"MolMicro-ACT451840-6cl2"
"63"	"63"	4	0.01386775	"PF3D7_0817900"	"MolMicro-ACT451840-6cl2"
"64"	"64"	4	0.01186225	"PF3D7_0918100"	"MolMicro-ACT451840-6cl2"
"65"	"65"	4	0.01917575	"PF3D7_0925100"	"MolMicro-ACT451840-6cl2"
"66"	"66"	6	0.0136076666666667	"PF3D7_0927300"	"MolMicro-ACT451840-6cl2"
"67"	"67"	4	0.0203825	"PF3D7_0935100"	"MolMicro-ACT451840-6cl2"
"68"	"68"	4	0.011793	"PF3D7_1006800"	"MolMicro-ACT451840-6cl2"
"69"	"69"	6	0.018173	"PF3D7_1014400"	"MolMicro-ACT451840-6cl2"
"70"	"70"	6	0.0140625	"PF3D7_1019200"	"MolMicro-ACT451840-6cl2"
"71"	"71"	4	0.01080675	"PF3D7_1033200"	"MolMicro-ACT451840-6cl2"
"72"	"72"	4	0.0134635	"PF3D7_1036900"	"MolMicro-ACT451840-6cl2"
"73"	"73"	14	0.0120297857142857	"PF3D7_1038700"	"MolMicro-ACT451840-6cl2"
"74"	"74"	4	0.01571125	"PF3D7_1140100"	"MolMicro-ACT451840-6cl2"
"75"	"75"	4	0.01385525	"PF3D7_1208600"	"MolMicro-ACT451840-6cl2"
"76"	"76"	4	0.00948475	"PF3D7_1215700"	"MolMicro-ACT451840-6cl2"
"77"	"77"	4	0.02341725	"PF3D7_1218800"	"MolMicro-ACT451840-6cl2"
"78"	"78"	4	0.01306725	"PF3D7_1235800"	"MolMicro-ACT451840-6cl2"
"79"	"79"	4	0.01627725	"PF3D7_1246000"	"MolMicro-ACT451840-6cl2"
"80"	"80"	4	0.025879	"PF3D7_1334400"	"MolMicro-ACT451840-6cl2"
"81"	"81"	4	0.008387	"PF3D7_1345700"	"MolMicro-ACT451840-6cl2"
"82"	"82"	4	0.010205	"PF3D7_1412600"	"MolMicro-ACT451840-6cl2"
"83"	"83"	4	0.012917	"PF3D7_1413800"	"MolMicro-ACT451840-6cl2"
"84"	"84"	4	0.00910825	"PF3D7_1447100"	"MolMicro-ACT451840-6cl2"
"85"	"85"	4	0.0088645	"PF3D7_1449900"	"MolMicro-ACT451840-6cl2"
"86"	"86"	4	0.021651	"PF3D7_1476000"	"MolMicro-ACT451840-6cl2"
"87"	"87"	4	-0.010341	"PF3D7_0306500"	"MolMicro-7G8Parent"
"88"	"88"	4	0.01104475	"PF3D7_0310600.1"	"MolMicro-7G8Parent"
"89"	"89"	4	0.01135475	"PF3D7_0404300"	"MolMicro-7G8Parent"
"90"	"90"	4	0.0067595	"PF3D7_0420500"	"MolMicro-7G8Parent"
"91"	"91"	4	0.00857925	"PF3D7_0514000"	"MolMicro-7G8Parent"
"92"	"92"	4	0.01078675	"PF3D7_0515400"	"MolMicro-7G8Parent"
"93"	"93"	5	0.0184032	"PF3D7_0518100"	"MolMicro-7G8Parent"
"94"	"94"	4	0.0363885	"PF3D7_0530600"	"MolMicro-7G8Parent"
"95"	"95"	4	0.00931825	"PF3D7_0622100"	"MolMicro-7G8Parent"
"96"	"96"	4	0.00899	"PF3D7_0623400"	"MolMicro-7G8Parent"
"97"	"97"	4	0.01374	"PF3D7_0706800"	"MolMicro-7G8Parent"
"98"	"98"	4	0.0156575	"PF3D7_0721900"	"MolMicro-7G8Parent"
"99"	"99"	4	0.01267075	"PF3D7_0805200"	"MolMicro-7G8Parent"
"100"	"100"	4	0.01124825	"PF3D7_0820200"	"MolMicro-7G8Parent"
"101"	"101"	4	0.01081675	"PF3D7_1243600"	"MolMicro-7G8Parent"
"102"	"102"	4	0.009439	"PF3D7_1332500"	"MolMicro-7G8Parent"
"103"	"103"	4	0.00292475	"PF3D7_1355500"	"MolMicro-7G8Parent"
"104"	"104"	4	0.01655925	"PF3D7_1439600"	"MolMicro-7G8Parent"
"105"	"105"	4	-0.007281	"PF3D7_1448500"	"MolMicro-7G8Parent"
