""	"CNV_length"	"mean_normalised_coverage"
"X3L"	3	0.0142856666666667
"X4L"	4	0.0123633640171639
"X5L"	5	0.0159131082066869
"X6L"	6	0.0128252502401537
"X7L"	7	0.0151272036474164
"X8L"	8	0.012335635
"X9L"	9	0.0115867267267267
"X10L"	10	0.0129745928571429
"X11L"	11	0.0103211022727273
"X14L"	14	0.00543778571428571
"X15L"	15	0.01417
"X3L.1"	3	0.0137160476190476
"X4L.1"	4	0.0125216056519942
"X5L.1"	5	0.0155797725609756
"X6L.1"	6	0.0129275264471058
"X7L.1"	7	0.0151112014652015
"X8L.1"	8	0.0125500961538462
"X9L.1"	9	0.0118937602339181
"X10L.1"	10	0.0121577416666667
"X11L.1"	11	0.0114200681818182
"X12L"	12	0.013462125
"X13L"	13	0.0124288461538462
"X3L.2"	3	0.0126122941176471
"X4L.2"	4	0.0122536969744887
"X5L.2"	5	0.0152475593314763
"X6L.2"	6	0.0122953177920686
"X7L.2"	7	0.0135239473684211
"X8L.2"	8	0.0115783217592593
"X9L.2"	9	0.0113447384259259
"X10L.2"	10	0.012311225
"X11L.2"	11	0.0112048484848485
"X12L.1"	12	0.0156386458333333
"X13L.1"	13	0.0150045384615385
"X14L.1"	14	0.00882178571428571
"X16L"	16	0.007142875
"X3L.3"	3	0.0213004666666667
"X4L.3"	4	0.0124664270347605
"X5L.3"	5	0.0152484928774929
"X6L.3"	6	0.0131094509803922
"X7L.3"	7	0.0150734237288136
"X8L.3"	8	0.011929978125
"X9L.3"	9	0.0119370694444444
"X10L.3"	10	0.0113937
"X11L.3"	11	0.0117113496503497
"X12L.2"	12	0.00903441666666667
"X13L.2"	13	0.00862851923076923
"X3L.4"	3	0.0154572962962963
"X4L.4"	4	0.0125724906809663
"X5L.4"	5	0.0153471764044944
"X6L.4"	6	0.0127667220708447
"X7L.4"	7	0.0156003714285714
"X8L.4"	8	0.0124609736842105
"X9L.4"	9	0.0119726353276353
"X10L.4"	10	0.0124461
"X11L.4"	11	0.0111645272727273
"X13L.3"	13	0.00696684615384615
"X14L.2"	14	0.0108747857142857
"X17L"	17	0.0116161176470588
"X3L.5"	3	0.0155469487179487
"X4L.5"	4	0.0124742737006237
"X5L.5"	5	0.0152867247311828
"X6L.5"	6	0.0127900263157895
"X7L.5"	7	0.0143281728110599
"X8L.5"	8	0.0130178295454545
"X9L.5"	9	0.0117014486373166
"X10L.5"	10	0.011197125
"X11L.5"	11	0.010877
"X12L.3"	12	0.0141053333333333
"X3L.6"	3	0.01386575
"X4L.6"	4	0.0126009096634318
"X5L.6"	5	0.0156558891495601
"X6L.6"	6	0.0129411895424837
"X7L.6"	7	0.0151030306122449
"X8L.6"	8	0.0136929019607843
"X9L.6"	9	0.0116787631578947
"X10L.6"	10	0.0111219
"X11L.6"	11	0.0125892878787879
"X12L.4"	12	0.0140345833333333
"X13L.4"	13	0.0130409230769231
"X15L.1"	15	0.0137256
"X3L.7"	3	0.0196878666666667
"X4L.7"	4	0.0124423287363695
"X5L.7"	5	0.0149100226027397
"X6L.7"	6	0.0130056258389262
"X7L.7"	7	0.0136766620879121
"X8L.7"	8	0.0129528244047619
"X9L.7"	9	0.0105925173611111
"X10L.7"	10	0.0104875
"X11L.7"	11	0.0101228636363636
"X12L.5"	12	0.0133123333333333
"X13L.5"	13	0.0115692307692308
"X14L.3"	14	0.0130377142857143
"X15L.2"	15	0.0123464666666667
"X18L"	18	0.00979966666666667
"X3L.8"	3	0.0128582745098039
"X4L.8"	4	0.0126138112211932
"X5L.8"	5	0.0150453335548173
"X6L.8"	6	0.0124513560606061
"X7L.8"	7	0.0155902124542125
"X8L.8"	8	0.0125285075757576
"X9L.8"	9	0.012163696969697
"X10L.8"	10	0.0106060272727273
"X11L.8"	11	0.0159480909090909
"X12L.6"	12	0.0121625833333333
"X13L.6"	13	0.0111054615384615
"X14L.4"	14	0.0153109285714286
"X3L.9"	3	0.0133732820512821
"X4L.9"	4	0.0123663481518482
"X5L.9"	5	0.0150736385542169
"X6L.9"	6	0.012335649197356
"X7L.9"	7	0.0145930918367347
"X8L.9"	8	0.01262905859375
"X9L.9"	9	0.0109292272727273
"X10L.9"	10	0.0122032727272727
"X11L.9"	11	0.012977
"X13L.7"	13	0.0119116307692308
"X15L.3"	15	0.0143564666666667
"X17L.1"	17	0.0108888235294118
"X3L.10"	3	0.0158183333333333
"X4L.10"	4	0.0124327973001038
"X5L.10"	5	0.0151060733727811
"X6L.10"	6	0.0132068055555556
"X7L.10"	7	0.0155102207792208
"X8L.10"	8	0.0139570555555556
"X9L.10"	9	0.0111919410430839
"X10L.10"	10	0.0130189111111111
"X11L.10"	11	0.0117307575757576
"X12L.7"	12	0.00958075
"X13L.8"	13	0.0126173076923077
"X14L.5"	14	0.0109248928571429
"X3L.11"	3	0.0126472727272727
"X4L.11"	4	0.012314924833887
"X5L.11"	5	0.0154378613981763
"X6L.11"	6	0.0130367111111111
"X7L.11"	7	0.0158523519163763
"X8L.11"	8	0.0139415590909091
"X9L.11"	9	0.0117575588235294
"X10L.11"	10	0.0123698090909091
"X11L.11"	11	0.00953620454545455
"X12L.8"	12	0.0130405
"X13L.9"	13	0.0114340769230769
"X3L.12"	3	0.0133528985507246
"X4L.12"	4	0.0124727011438957
"X5L.12"	5	0.0150675130699088
"X6L.12"	6	0.0123388808724832
"X7L.12"	7	0.0139411428571429
"X8L.12"	8	0.01261829296875
"X9L.12"	9	0.0120050507246377
"X10L.12"	10	0.0121600555555556
"X11L.12"	11	0.0102352181818182
"X12L.9"	12	0.0159754166666667
"X13L.10"	13	0.0129021538461538
"X14L.6"	14	0.0127498571428571
"X16L.1"	16	0.0112083125
"X3L.13"	3	0.0178107272727273
"X4L.13"	4	0.0124983802345059
"X5L.13"	5	0.0156400357142857
"X6L.13"	6	0.0129148488372093
"X7L.13"	7	0.0152922419825073
"X8L.13"	8	0.0120598947368421
"X9L.13"	9	0.012468305982906
"X10L.13"	10	0.0133904733333333
"X11L.13"	11	0.0140625384615385
"X12L.10"	12	0.0175096527777778
"X14L.7"	14	0.0107514285714286
"X16L.2"	16	0.0156695625
"X3L.14"	3	0.0182263333333333
"X4L.14"	4	0.0125448530137832
"X5L.14"	5	0.0162306223433243
"X6L.14"	6	0.013480993955095
"X7L.14"	7	0.015258619047619
"X8L.14"	8	0.0145473176229508
"X9L.14"	9	0.0127852341269841
"X10L.14"	10	0.0135194529411765
"X11L.14"	11	0.0122797727272727
"X12L.11"	12	0.015162125
"X13L.11"	13	0.0116531538461538
"X14L.8"	14	0.0161933214285714
"X15L.4"	15	0.0186005333333333
"X18L.1"	18	0.0123692222222222
"X3L.15"	3	0.01646245
"X4L.15"	4	0.0124157516999794
"X5L.15"	5	0.0154950503311258
"X6L.15"	6	0.0127601497354497
"X7L.15"	7	0.0129519297052154
"X8L.15"	8	0.0124742397959184
"X9L.15"	9	0.0110066895424837
"X10L.15"	10	0.01171122
"X11L.15"	11	0.0112820303030303
"X12L.12"	12	0.01320725
"X13L.12"	13	0.0114124615384615
"X17L.2"	17	0.0120777058823529
"X3L.16"	3	0.0137000476190476
"X4L.16"	4	0.0125262841405113
"X5L.16"	5	0.0151754818791946
"X6L.16"	6	0.0130763723723724
"X7L.16"	7	0.0153534615384615
"X8L.16"	8	0.0122721681034483
"X9L.16"	9	0.0110691834625323
"X10L.16"	10	0.0136576375
"X11L.16"	11	0.00963675757575758
"X14L.9"	14	0.0103330714285714
"X3L.17"	3	0.0186892083333333
"X4L.17"	4	0.0123807568797629
"X5L.17"	5	0.0152268924855491
"X6L.17"	6	0.012577134837963
"X7L.17"	7	0.0138143142857143
"X8L.17"	8	0.0120321333333333
"X9L.17"	9	0.0111292287581699
"X10L.17"	10	0.0116002789473684
"X11L.17"	11	0.0126520909090909
"X12L.13"	12	0.0114309583333333
"X13L.13"	13	0.0110303076923077
"X15L.5"	15	0.0154517333333333
"X3L.18"	3	0.0159395897435897
"X4L.18"	4	0.0124559915236501
"X5L.18"	5	0.0152835603658537
"X6L.18"	6	0.0125281147003745
"X7L.18"	7	0.014542
"X8L.18"	8	0.0130089033018868
"X9L.18"	9	0.0127728666666667
"X10L.18"	10	0.0134423545454545
"X11L.18"	11	0.0117027878787879
"X13L.14"	13	0.0115902307692308
"X3L.19"	3	0.0194100185185185
"X4L.19"	4	0.0127025389801938
"X5L.19"	5	0.015407374829932
"X6L.19"	6	0.0123548073817762
"X7L.19"	7	0.014042037593985
"X8L.19"	8	0.0139299857142857
"X9L.19"	9	0.0116283006535948
"X10L.19"	10	0.0142121272727273
"X11L.19"	11	0.00871243181818182
"X13L.15"	13	0.01256975
"X14L.10"	14	0.0102641785714286
"X17L.3"	17	0.0156781176470588
"X3L.20"	3	0.0179605666666667
"X4L.20"	4	0.0125256347353701
"X5L.20"	5	0.0153679171339564
"X6L.20"	6	0.0123688368902439
"X7L.20"	7	0.0139800227272727
"X8L.20"	8	0.0123386369047619
"X9L.20"	9	0.0103661684587814
"X10L.20"	10	0.01352134
"X13L.16"	13	0.0158724615384615
"X14L.11"	14	0.0161003214285714
"X3L.21"	3	0.0182336419753086
"X4L.21"	4	0.0127003293838863
"X5L.21"	5	0.0155378806629834
"X6L.21"	6	0.0128842028347996
"X7L.21"	7	0.0151609571428571
"X8L.21"	8	0.0119249817708333
"X9L.21"	9	0.0102301047619048
"X10L.21"	10	0.0108160285714286
"X11L.20"	11	0.00976075324675325
"X13L.17"	13	0.0111159230769231
"X15L.6"	15	0.0109260333333333
"X3L.22"	3	0.01650544
"X4L.22"	4	0.0122898811597281
"X5L.22"	5	0.0148078898089172
"X6L.22"	6	0.0125830569620253
"X7L.22"	7	0.0138065978835979
"X8L.22"	8	0.0130574639423077
"X9L.22"	9	0.0111569314420804
"X10L.22"	10	0.0121376666666667
"X11L.21"	11	0.0125279480519481
"X12L.14"	12	0.0134689166666667
"X13L.18"	13	0.0110831153846154
"X14L.12"	14	0.00860207142857143
"X3L.23"	3	0.0174706666666667
"X4L.23"	4	0.0125339759707193
"X5L.23"	5	0.015424923566879
"X6L.23"	6	0.0120667937569677
"X7L.23"	7	0.014106039408867
"X8L.23"	8	0.013213423245614
"X9L.23"	9	0.0108230413943355
"X10L.23"	10	0.0123797
"X11L.22"	11	0.014309803030303
"X12L.15"	12	0.0178654166666667
"X13L.19"	13	0.00981630769230769
"X3L.24"	3	0.0192803725490196
"X4L.24"	4	0.0126968926095821
"X5L.24"	5	0.0158030245125348
"X6L.24"	6	0.0126066841269841
"X7L.24"	7	0.0169114285714286
"X8L.24"	8	0.013488170212766
"X9L.24"	9	0.0113015676767677
"X10L.24"	10	0.0132672615384615
"X11L.23"	11	0.0120644924242424
"X12L.16"	12	0.0136343333333333
"X13L.20"	13	0.0131815128205128
"X14L.13"	14	0.0128637142857143
"X3L.25"	3	0.0191304166666667
"X4L.25"	4	0.0124055963070629
"X5L.25"	5	0.0154424982857143
"X6L.25"	6	0.0129535451263538
"X7L.25"	7	0.0150237192118227
"X8L.25"	8	0.0128322119565217
"X9L.25"	9	0.0118865022222222
"X10L.25"	10	0.0108690058823529
"X11L.24"	11	0.0100085454545455
"X12L.17"	12	0.01543225
"X13L.21"	13	0.0117233846153846
"X14L.14"	14	0.00933707142857143
"X3L.26"	3	0.0161480317460317
"X4L.26"	4	0.0125481286345036
"X5L.26"	5	0.0151777928571429
"X6L.26"	6	0.012776319112628
"X7L.26"	7	0.0144614065934066
"X8L.26"	8	0.0134931217948718
"X9L.26"	9	0.0117340720164609
"X10L.26"	10	0.0128309956521739
"X11L.25"	11	0.0147837727272727
"X14L.15"	14	0.00969735714285714
"X3L.27"	3	0.0174279012345679
"X4L.27"	4	0.0123499519377313
"X5L.27"	5	0.0155096678466077
"X6L.27"	6	0.0129607389624724
"X7L.27"	7	0.0156646758241758
"X8L.27"	8	0.0120184144736842
"X9L.27"	9	0.0105394444444444
"X10L.27"	10	0.01269814
"X11L.26"	11	0.00984795454545455
"X12L.18"	12	0.0157630833333333
"X13L.22"	13	0.0103033076923077
"X3L.28"	3	0.0168290833333333
"X4L.28"	4	0.0124929807002742
"X5L.28"	5	0.0149815620481928
"X6L.28"	6	0.0128884473684211
"X7L.28"	7	0.0135143075060533
"X8L.28"	8	0.0122054495192308
"X9L.28"	9	0.0102902280701754
"X10L.28"	10	0.0124434
"X11L.27"	11	0.0108399393939394
"X12L.19"	12	0.0108794444444444
"X15L.7"	15	0.00905393333333333
"X3L.29"	3	0.013309037037037
"X4L.29"	4	0.0126525477323345
"X5L.29"	5	0.0151864254545455
"X6L.29"	6	0.012982200408998
"X7L.29"	7	0.0149438367346939
"X8L.29"	8	0.01295325
"X9L.29"	9	0.0114614977777778
"X10L.29"	10	0.01331725
"X11L.28"	11	0.0131300505050505
"X12L.20"	12	0.0108861666666667
"X13L.23"	13	0.009623
"X3L.30"	3	0.0174214259259259
"X4L.30"	4	0.0124152783748925
"X5L.30"	5	0.0155602381877023
"X6L.30"	6	0.0124915333333333
"X7L.30"	7	0.0139643392857143
"X8L.30"	8	0.0123076329787234
"X9L.30"	9	0.0110661950113379
"X10L.30"	10	0.01110654
"X11L.29"	11	0.0115904090909091
"X12L.21"	12	0.0142011666666667
"X13L.24"	13	0.00992423076923077
"X14L.16"	14	0.0238625714285714
"X16L.3"	16	0.011728375
"X3L.31"	3	0.015344568627451
"X4L.31"	4	0.0126603954869359
"X5L.31"	5	0.0158014524421594
"X6L.31"	6	0.0121074151515152
"X7L.31"	7	0.0137059285714286
"X8L.31"	8	0.011694409375
"X9L.31"	9	0.0105474382716049
"X10L.31"	10	0.0103365857142857
"X11L.30"	11	0.00982698181818182
"X12L.22"	12	0.00895805555555556
"X13L.25"	13	0.00668932967032967
"X14L.17"	14	0.0172418571428571
"X15L.8"	15	0.0163688
"X3L.32"	3	0.0200673921568627
"X4L.32"	4	0.0126236658394476
"X5L.32"	5	0.0158857123867069
"X6L.32"	6	0.013108891025641
"X7L.32"	7	0.0153244476190476
"X8L.32"	8	0.0132010951086957
"X9L.32"	9	0.01100217003367
"X10L.32"	10	0.0135284909090909
"X11L.31"	11	0.0109751515151515
"X12L.23"	12	0.00882966666666667
"X13L.26"	13	0.0132342307692308
"X3L.33"	3	0.018236674796748
"X4L.33"	4	0.0124878681936041
"X5L.33"	5	0.0151041903448276
"X6L.33"	6	0.0130153311036789
"X7L.33"	7	0.0148092225913621
"X8L.33"	8	0.013384095
"X9L.33"	9	0.0121621944444444
"X10L.33"	10	0.0136403833333333
"X11L.32"	11	0.00988531818181818
"X12L.24"	12	0.0121225
"X3L.34"	3	0.0174555
"X4L.34"	4	0.0123235233699093
"X5L.34"	5	0.0153517489230769
"X6L.34"	6	0.0130576865671642
"X7L.34"	7	0.0143975853658537
"X8L.34"	8	0.0123814310344828
"X9L.34"	9	0.0112048189300412
"X10L.34"	10	0.0127542333333333
"X11L.33"	11	0.0109892651515152
"X13L.27"	13	0.0100499230769231
"X14L.18"	14	0.0122911428571429
"X3L.35"	3	0.0192700277777778
"X4L.35"	4	0.0122297970533306
"X5L.35"	5	0.0157467909407666
"X6L.35"	6	0.0124049672021419
"X7L.35"	7	0.0140191992481203
"X8L.35"	8	0.0137367423469388
"X9L.35"	9	0.0121604558404558
"X10L.35"	10	0.01100614
"X11L.34"	11	0.0116783090909091
"X13L.28"	13	0.00967476923076923
"X16L.4"	16	0.0128001875
"X3L.36"	3	0.0203367254901961
"X4L.36"	4	0.0125021153846154
"X5L.36"	5	0.0149441101639344
"X6L.36"	6	0.0121269567708333
"X7L.36"	7	0.0144076535714286
"X8L.36"	8	0.0126978513513514
"X9L.36"	9	0.0107978
"X10L.36"	10	0.0132863111111111
"X11L.35"	11	0.00776772727272727
"X12L.25"	12	0.01297275
"X13L.29"	13	0.013607
"X14L.19"	14	0.00992657142857143
"X20L"	20	0.01715945
"X3L.37"	3	0.0173470277777778
"X4L.37"	4	0.0123114444152293
"X5L.37"	5	0.0151236134228188
"X6L.37"	6	0.0132057644675926
"X7L.37"	7	0.0141634892857143
"X8L.37"	8	0.0129546019736842
"X9L.37"	9	0.0115945339966833
"X10L.37"	10	0.01237062
"X11L.36"	11	0.0138179480519481
"X12L.26"	12	0.0202885
"X14L.20"	14	0.0170791428571429
"X3L.38"	3	0.0191526333333333
"X4L.38"	4	0.0126740975697293
"X5L.38"	5	0.0159832735955056
"X6L.38"	6	0.0129819071358749
"X7L.38"	7	0.0142428351648352
"X8L.38"	8	0.0124909893617021
"X9L.38"	9	0.0109288888888889
"X10L.38"	10	0.0127079727272727
"X11L.37"	11	0.0145525974025974
"X12L.27"	12	0.0163018333333333
"X3L.39"	3	0.0183694814814815
"X4L.39"	4	0.012501190845216
"X5L.39"	5	0.0156818759322034
"X6L.39"	6	0.0125402032258065
"X7L.39"	7	0.0149037605042017
"X8L.39"	8	0.0115691180555556
"X9L.39"	9	0.0117083712737127
"X10L.39"	10	0.013046675
"X11L.38"	11	0.0112971818181818
"X13L.30"	13	0.0110952307692308
"X3L.40"	3	0.0172326666666667
"X4L.40"	4	0.0126520454545455
"X5L.40"	5	0.0151663423822715
"X6L.40"	6	0.0130363447916667
"X7L.40"	7	0.0140657967032967
"X8L.40"	8	0.0123368787878788
"X9L.40"	9	0.0093065015015015
"X10L.40"	10	0.0136434769230769
"X11L.39"	11	0.0108108701298701
"X13L.31"	13	0.00784253846153846
"X3L.41"	3	0.015171950617284
"X4L.41"	4	0.0123252279292929
"X5L.41"	5	0.0161903453287197
"X6L.41"	6	0.0131950555555556
"X7L.41"	7	0.0150949155844156
"X8L.41"	8	0.01464665
"X9L.41"	9	0.0116063863636364
"X10L.41"	10	0.0125172928571429
"X11L.40"	11	0.0143312121212121
"X12L.28"	12	0.00920183333333333
"X13L.32"	13	0.0140555769230769
"X3L.42"	3	0.0163694166666667
"X4L.42"	4	0.0126051306367432
"X5L.42"	5	0.0151887357357357
"X6L.42"	6	0.0128133761770245
"X7L.42"	7	0.015150681498829
"X8L.42"	8	0.0138421214285714
"X9L.42"	9	0.0117349947089947
"X10L.42"	10	0.011725325
"X11L.41"	11	0.00995613368983957
"X12L.29"	12	0.00934991666666667
"X14L.21"	14	0.0111036428571429
"X3L.43"	3	0.0165764333333333
"X4L.43"	4	0.0127158713341594
"X5L.43"	5	0.016112566084788
"X6L.43"	6	0.0139109471794872
"X7L.43"	7	0.015186875
"X8L.43"	8	0.0128124866071429
"X9L.43"	9	0.0121161619047619
"X10L.43"	10	0.0134755230769231
"X11L.42"	11	0.0113941919191919
"X12L.30"	12	0.015139375
"X13L.33"	13	0.0123357307692308
"X14L.22"	14	0.0123871071428571
"X3L.44"	3	0.0182538
"X4L.44"	4	0.0127745420749893
"X5L.44"	5	0.0155557952380952
"X6L.44"	6	0.0131206543803419
"X7L.44"	7	0.0138555365853659
"X8L.44"	8	0.0116518693181818
"X9L.44"	9	0.0114926028806584
"X10L.44"	10	0.0112849125
"X11L.43"	11	0.0107155151515152
"X12L.31"	12	0.0137262916666667
"X13L.34"	13	0.0161196153846154
"X14L.23"	14	0.0126921428571429
"X3L.45"	3	0.0129718333333333
"X4L.45"	4	0.0124231088481675
"X5L.45"	5	0.0147157230769231
"X6L.45"	6	0.0124630054288816
"X7L.45"	7	0.0141401693121693
"X8L.45"	8	0.0117983375
"X9L.45"	9	0.00970640650406504
"X10L.45"	10	0.0120851944444444
"X11L.44"	11	0.012488875
"X12L.32"	12	0.005468
"X13L.35"	13	0.0143892307692308
"X16L.5"	16	0.01200925
"X17L.4"	17	0.008763
"X3L.46"	3	0.010423
"X4L.46"	4	0.0123386711649243
"X5L.46"	5	0.0151742651757189
"X6L.46"	6	0.0127038874734607
"X7L.46"	7	0.0140731720779221
"X8L.46"	8	0.0120363090909091
"X9L.46"	9	0.0104942330623306
"X10L.46"	10	0.01314515
"X11L.45"	11	0.0129070909090909
"X13L.36"	13	0.0112526923076923
"X3L.47"	3	0.0166384509803922
"X4L.47"	4	0.0126185572870453
"X5L.47"	5	0.0151434
"X6L.47"	6	0.0129910313102119
"X7L.47"	7	0.0142747293233083
"X8L.47"	8	0.0131372095588235
"X9L.47"	9	0.0103546084656085
"X10L.47"	10	0.0115995
"X11L.46"	11	0.0108565909090909
"X12L.33"	12	0.0132530416666667
"X13L.37"	13	0.0100807692307692
"X3L.48"	3	0.0180680256410256
"X4L.48"	4	0.0124938752855659
"X5L.48"	5	0.0149744082018927
"X6L.48"	6	0.0126290188679245
"X7L.48"	7	0.0142408684210526
"X8L.48"	8	0.0128299519230769
"X9L.48"	9	0.0117838472222222
"X10L.48"	10	0.0114496888888889
"X11L.47"	11	0.0136537012987013
"X12L.34"	12	0.010631125
"X13L.38"	13	0.0127416153846154
"X15L.9"	15	0.00919433333333333
"X3L.49"	3	0.0145777878787879
"X4L.49"	4	0.0123774015427469
"X5L.49"	5	0.0145590041958042
"X6L.49"	6	0.0122475984848485
"X7L.49"	7	0.0142548541033435
"X8L.49"	8	0.0122600375
"X9L.49"	9	0.0123953933933934
"X10L.49"	10	0.0114054
"X11L.48"	11	0.0123593977272727
"X3L.50"	3	0.0156416363636364
"X4L.50"	4	0.0127751206095041
"X5L.50"	5	0.0158005775910364
"X6L.50"	6	0.0134485391566265
"X7L.50"	7	0.0159744689440994
"X8L.50"	8	0.013031403125
"X9L.50"	9	0.0113275603174603
"X10L.50"	10	0.01382865
"X11L.49"	11	0.0102984132231405
"X12L.35"	12	0.0122566388888889
"X13L.39"	13	0.0159518076923077
"X14L.24"	14	0.0123102857142857
"X15L.10"	15	0.0108913333333333
"X3L.51"	3	0.018733358974359
"X4L.51"	4	0.0122584246148977
"X5L.51"	5	0.015053512987013
"X6L.51"	6	0.012573337254902
"X7L.51"	7	0.0144830595238095
"X8L.51"	8	0.0118546987179487
"X9L.51"	9	0.0110347094017094
"X10L.51"	10	0.0115592166666667
"X11L.50"	11	0.0143098409090909
"X12L.36"	12	0.0112135833333333
"X13L.40"	13	0.0114405769230769
"X14L.25"	14	0.00798332142857143
"X15L.11"	15	0.0155673333333333
"X3L.52"	3	0.0176573333333333
"X4L.52"	4	0.0124067609690164
"X5L.52"	5	0.0154394892307692
"X6L.52"	6	0.0124258173817382
"X7L.52"	7	0.0153198655462185
"X8L.52"	8	0.0124650852272727
"X9L.52"	9	0.0113723639846743
"X10L.52"	10	0.0121478272727273
"X11L.51"	11	0.0105130454545455
"X16L.6"	16	0.0131391875
"X3L.53"	3	0.0146415925925926
"X4L.53"	4	0.0123881503099174
"X5L.53"	5	0.0149479971830986
"X6L.53"	6	0.0130171927252986
"X7L.53"	7	0.0152243678571429
"X8L.53"	8	0.0127547549019608
"X9L.53"	9	0.0106570489642185
"X10L.53"	10	0.0131515090909091
"X11L.52"	11	0.0130477272727273
"X12L.37"	12	0.00802720833333333
"X16L.7"	16	0.0125955
"X3L.54"	3	0.016613012345679
"X4L.54"	4	0.0124084040995608
"X5L.54"	5	0.0148817307443366
"X6L.54"	6	0.0124107566287879
"X7L.54"	7	0.0137955463659148
"X8L.54"	8	0.0138213342391304
"X9L.54"	9	0.0115578817966903
"X10L.54"	10	0.013081375
"X11L.53"	11	0.0109358545454545
"X12L.38"	12	0.0123845277777778
"X13L.41"	13	0.00761569230769231
"X3L.55"	3	0.0151275238095238
"X4L.55"	4	0.0123699794772089
"X5L.55"	5	0.0150540709897611
"X6L.55"	6	0.0123976469098278
"X7L.55"	7	0.014801861003861
"X8L.55"	8	0.0122434765625
"X9L.55"	9	0.009982
"X10L.55"	10	0.0123999916666667
"X11L.54"	11	0.0103826060606061
"X12L.39"	12	0.01384125
"X14L.26"	14	0.008074
"X3L.56"	3	0.0193194166666667
"X4L.56"	4	0.0123160798985415
"X5L.56"	5	0.0151857141868512
"X6L.56"	6	0.0128625604674797
"X7L.56"	7	0.0160094135338346
"X8L.56"	8	0.013415693452381
"X9L.56"	9	0.0109346882716049
"X10L.56"	10	0.0136150454545455
"X11L.55"	11	0.0106942272727273
"X13L.42"	13	0.0115058076923077
"X14L.27"	14	0.0117984285714286
"X3L.57"	3	0.01922485
"X4L.57"	4	0.0125960627188465
"X5L.57"	5	0.0158442408945687
"X6L.57"	6	0.0134308066448802
"X7L.57"	7	0.0147175838509317
"X8L.57"	8	0.01285086328125
"X9L.57"	9	0.0112827881136951
"X10L.57"	10	0.01262713
"X11L.56"	11	0.013201595959596
"X12L.40"	12	0.01471
"X13L.43"	13	0.0109836153846154
"X15L.12"	15	0.0111702333333333
"X3L.58"	3	0.0164690987654321
"X4L.58"	4	0.0125665392136026
"X5L.58"	5	0.0154316631578947
"X6L.58"	6	0.0126355343434343
"X7L.58"	7	0.0153228021978022
"X8L.58"	8	0.01368451953125
"X9L.58"	9	0.0109868518518519
"X10L.58"	10	0.01167999
"X11L.57"	11	0.0113691136363636
"X13L.44"	13	0.00903284615384615
"X14L.28"	14	0.0130180714285714
"X3L.59"	3	0.0154344444444444
"X4L.59"	4	0.0124688341042893
"X5L.59"	5	0.0151472678851175
"X6L.59"	6	0.0127001060209424
"X7L.59"	7	0.0139822727272727
"X8L.59"	8	0.0115866928571429
"X9L.59"	9	0.0124349457364341
"X10L.59"	10	0.0123502
"X11L.58"	11	0.00991326136363636
"X13L.45"	13	0.0160843076923077
"X3L.60"	3	0.0168395641025641
"X4L.60"	4	0.0125564753274616
"X5L.60"	5	0.0148845070422535
"X6L.60"	6	0.012722944973545
"X7L.60"	7	0.0143457265306122
"X8L.60"	8	0.0123406875
"X9L.60"	9	0.0109778786324786
"X10L.60"	10	0.0122974153846154
"X11L.59"	11	0.0128676611570248
"X12L.41"	12	0.0111665833333333
"X13L.46"	13	0.0116859230769231
"X14L.29"	14	0.0104166428571429
"X19L"	19	0.0114192631578947
"X3L.61"	3	0.0162071428571429
"X4L.61"	4	0.0125402627136983
"X5L.61"	5	0.0158173814492754
"X6L.61"	6	0.0131736300309598
"X7L.61"	7	0.0150052424242424
"X8L.61"	8	0.0141215027173913
"X9L.61"	9	0.0118699344729345
"X10L.61"	10	0.0135119888888889
"X11L.60"	11	0.0120694621212121
"X12L.42"	12	0.0143734166666667
"X14L.30"	14	0.0120282142857143
"X3L.62"	3	0.0140943333333333
"X4L.62"	4	0.0125911302911419
"X5L.62"	5	0.0149445232786885
"X6L.62"	6	0.0129068579849946
"X7L.62"	7	0.0133416619047619
"X8L.62"	8	0.0135272142857143
"X9L.62"	9	0.0111406169590643
"X10L.62"	10	0.0129654545454545
"X11L.61"	11	0.0118017613636364
"X12L.43"	12	0.0155180833333333
"X13L.47"	13	0.0125353846153846
"X14L.31"	14	0.0118338571428571
"X3L.63"	3	0.0282396
"X4L.63"	4	0.0125327172000848
"X5L.63"	5	0.0155058454022989
"X6L.63"	6	0.013016824127907
"X7L.63"	7	0.0167454375
"X8L.63"	8	0.0119618664772727
"X9L.63"	9	0.0111051328502415
"X10L.63"	10	0.0135794818181818
"X11L.62"	11	0.0124890202020202
"X12L.44"	12	0.009602
"X3L.64"	3	0.0170531666666667
"X4L.64"	4	0.0124631741507431
"X5L.64"	5	0.0152576483443709
"X6L.64"	6	0.0136871134868421
"X7L.64"	7	0.0150901088435374
"X8L.64"	8	0.0118681284722222
"X9L.64"	9	0.0113164834834835
"X10L.64"	10	0.0123924
"X11L.63"	11	0.0132837045454545
"X12L.45"	12	0.0137343541666667
"X13L.48"	13	0.0119309615384615
"X15L.13"	15	0.0128174
"X3L.65"	3	0.014392
"X4L.65"	4	0.0125512013264869
"X5L.65"	5	0.0161618668693009
"X6L.65"	6	0.0125335123839009
"X7L.65"	7	0.0156178222996516
"X8L.65"	8	0.0136099515306122
"X9L.65"	9	0.011297575
"X10L.65"	10	0.0135657333333333
"X11L.64"	11	0.0112947878787879
"X12L.46"	12	0.0154150833333333
"X13L.49"	13	0.0102695384615385
"X3L.66"	3	0.0183340185185185
"X4L.66"	4	0.0124890337297411
"X5L.66"	5	0.0161642453731343
"X6L.66"	6	0.0133559079189687
"X7L.66"	7	0.0138867305194805
"X8L.66"	8	0.013541625
"X9L.66"	9	0.0118159388888889
"X10L.66"	10	0.0136028833333333
"X11L.65"	11	0.0111547272727273
"X12L.47"	12	0.0136800416666667
"X3L.67"	3	0.0222378888888889
"X4L.67"	4	0.012206597276666
"X5L.67"	5	0.0151741162790698
"X6L.67"	6	0.0127590167118338
"X7L.67"	7	0.0144152624584718
"X8L.67"	8	0.0120901227272727
"X9L.67"	9	0.00978806613756614
"X10L.67"	10	0.00974873076923077
"X11L.66"	11	0.0127774090909091
"X12L.48"	12	0.0119135555555556
"X3L.68"	3	0.0172378850574713
"X4L.68"	4	0.0122170357579462
"X5L.68"	5	0.0157280785498489
"X6L.68"	6	0.0125695861182519
"X7L.68"	7	0.0145201544401544
"X8L.68"	8	0.0121778638888889
"X9L.68"	9	0.0120981840277778
"X10L.68"	10	0.00948356
"X11L.67"	11	0.0118087121212121
"X12L.49"	12	0.010756375
"X3L.69"	3	0.0190607878787879
"X4L.69"	4	0.0124204603215768
"X5L.69"	5	0.0149961319693095
"X6L.69"	6	0.0125256519410977
"X7L.69"	7	0.0136504835164835
"X8L.69"	8	0.0126171071428571
"X9L.69"	9	0.0113934074074074
"X10L.69"	10	0.01344137
"X11L.68"	11	0.0108296623376623
"X12L.50"	12	0.0109534583333333
"X15L.14"	15	0.0146952
"X20L.1"	20	0.0127992
"X3L.70"	3	0.018463
"X4L.70"	4	0.0124216294697904
"X5L.70"	5	0.015317886779661
"X6L.70"	6	0.0122213100303951
"X7L.70"	7	0.0145290606060606
"X8L.70"	8	0.0112899935897436
"X9L.70"	9	0.0113137745098039
"X10L.70"	10	0.0109908642857143
"X11L.69"	11	0.0125291363636364
"X13L.50"	13	0.0106439743589744
"X3L.71"	3	0.0186300392156863
"X4L.71"	4	0.0125334751437088
"X5L.71"	5	0.0155407737704918
"X6L.71"	6	0.0125222916666667
"X7L.71"	7	0.0157190552995392
"X8L.71"	8	0.0124767448979592
"X9L.71"	9	0.0106328958333333
"X10L.71"	10	0.0123243166666667
"X11L.70"	11	0.010823
"X12L.51"	12	0.0140832666666667
"X13L.51"	13	0.00598153846153846
"X14L.32"	14	0.0111215357142857
"X15L.15"	15	0.0118053
"X3L.72"	3	0.0167519761904762
"X4L.72"	4	0.0127801952469256
"X5L.72"	5	0.0155864087209302
"X6L.72"	6	0.0132991029411765
"X7L.72"	7	0.014820038961039
"X8L.72"	8	0.0131392333333333
"X9L.72"	9	0.0114985048309179
"X10L.72"	10	0.01260109
"X11L.71"	11	0.01058775
"X12L.52"	12	0.00974733333333333
"X13L.52"	13	0.0184634615384615
"X3L.73"	3	0.0187188888888889
"X4L.73"	4	0.0126472080781415
"X5L.73"	5	0.0151661780487805
"X6L.73"	6	0.0125992265258216
"X7L.73"	7	0.0146849136904762
"X8L.73"	8	0.012883204787234
"X9L.73"	9	0.0114190842911877
"X10L.73"	10	0.0142643090909091
"X11L.72"	11	0.0110568333333333
"X12L.53"	12	0.0138005208333333
"X13L.53"	13	0.0134568717948718
"X14L.33"	14	0.014874875
"X3L.74"	3	0.014892358974359
"X4L.74"	4	0.0125482992823976
"X5L.74"	5	0.0154808733695652
"X6L.74"	6	0.0125968600237248
"X7L.74"	7	0.014333480952381
"X8L.74"	8	0.0138872154255319
"X9L.74"	9	0.00959634722222222
"X10L.74"	10	0.01046867
"X11L.73"	11	0.0113245303030303
"X3L.75"	3	0.015361
"X4L.75"	4	0.0126376833687566
"X5L.75"	5	0.0154439704663212
"X6L.75"	6	0.0129120805739514
"X7L.75"	7	0.0147409183673469
"X8L.75"	8	0.0127378777777778
"X9L.75"	9	0.0117353037037037
"X10L.75"	10	0.0116238764705882
"X11L.74"	11	0.0139016181818182
"X12L.54"	12	0.0136935
"X13L.54"	13	0.0152626153846154
"X23L"	23	0.00950304347826087
"X3L.76"	3	0.0164522133333333
"X4L.76"	4	0.0125189140524968
"X5L.76"	5	0.0157322775623269
"X6L.76"	6	0.0124646406423034
"X7L.76"	7	0.0152853472906404
"X8L.76"	8	0.0135558975
"X9L.76"	9	0.0123573143631436
"X10L.76"	10	0.01217148
"X11L.75"	11	0.0127711818181818
"X12L.55"	12	0.0136107083333333
"X15L.16"	15	0.0117677333333333
"X17L.5"	17	0.0111035882352941
"X3L.77"	3	0.0185354722222222
"X4L.77"	4	0.0124144148756848
"X5L.77"	5	0.0154805448071217
"X6L.77"	6	0.0131543425120773
"X7L.77"	7	0.0137323095238095
"X8L.77"	8	0.013441516025641
"X9L.77"	9	0.013011219047619
"X10L.77"	10	0.01248335
"X11L.76"	11	0.0142565324675325
"X12L.56"	12	0.0127598333333333
"X13L.55"	13	0.00868792307692308
"X3L.78"	3	0.019038
"X4L.78"	4	0.0126716826882625
"X5L.78"	5	0.015294897755611
"X6L.78"	6	0.0126920879120879
"X7L.78"	7	0.0139636813186813
"X8L.78"	8	0.0130180943877551
"X9L.78"	9	0.0122620204678363
"X10L.78"	10	0.0126773909090909
"X11L.77"	11	0.0116289696969697
"X13L.56"	13	0.0120201538461538
"X14L.34"	14	0.00558557142857143
"X21L"	21	0.00780080952380952
"X3L.79"	3	0.0189990694444444
"X4L.79"	4	0.0125411861064367
"X5L.79"	5	0.0152585077419355
"X6L.79"	6	0.0127076038961039
"X7L.79"	7	0.0136370714285714
"X8L.79"	8	0.0118798601190476
"X9L.79"	9	0.0107562713675214
"X10L.79"	10	0.0090173
"X11L.78"	11	0.0129008701298701
"X12L.57"	12	0.0136869583333333
"X3L.80"	3	0.0194944047619048
"X4L.80"	4	0.0124330255965293
"X5L.80"	5	0.0155182613180516
"X6L.80"	6	0.0129693645251397
"X7L.80"	7	0.0149828892857143
"X8L.80"	8	0.0146863413461538
"X9L.80"	9	0.0111471861861862
"X10L.80"	10	0.0129614461538462
"X11L.79"	11	0.0109531363636364
"X12L.58"	12	0.0120397222222222
"X13L.57"	13	0.0143953846153846
"X16L.8"	16	0.0064981875
"X3L.81"	3	0.0163716060606061
"X4L.81"	4	0.0125380548051145
"X5L.81"	5	0.0154581561290323
"X6L.81"	6	0.0126711398713826
"X7L.81"	7	0.0140903626373626
"X8L.81"	8	0.0125884146825397
"X9L.81"	9	0.0111312125603865
"X10L.81"	10	0.0120514454545455
"X11L.80"	11	0.0117281515151515
"X12L.59"	12	0.0114376111111111
"X16L.9"	16	0.011877375
"X3L.82"	3	0.0160304102564103
"X4L.82"	4	0.0124694848019487
"X5L.82"	5	0.0158462201257862
"X6L.82"	6	0.0128341444788442
"X7L.82"	7	0.0150346218487395
"X8L.82"	8	0.0132239890350877
"X9L.82"	9	0.010970584045584
"X10L.82"	10	0.0149314545454545
"X11L.81"	11	0.0105838295454545
"X12L.60"	12	0.010913375
"X13L.58"	13	0.0143639230769231
"X16L.10"	16	0.009884
"X3L.83"	3	0.0173577777777778
"X4L.83"	4	0.0127175412159238
"X5L.83"	5	0.0159630281524927
"X6L.83"	6	0.0135120287671233
"X7L.83"	7	0.0167124390243902
"X8L.83"	8	0.0126215852272727
"X9L.83"	9	0.0125870839506173
"X10L.83"	10	0.0134074307692308
"X11L.82"	11	0.012147974025974
"X12L.61"	12	0.01386475
"X14L.35"	14	0.009609125
"X3L.84"	3	0.0173157419354839
"X4L.84"	4	0.0124879574077955
"X5L.84"	5	0.0151039320512821
"X6L.84"	6	0.0124789021065675
"X7L.84"	7	0.0151785079365079
"X8L.84"	8	0.0118491621621622
"X9L.84"	9	0.0115504477124183
"X10L.84"	10	0.0137460230769231
"X11L.83"	11	0.0110737090909091
"X12L.62"	12	0.01517725
"X13L.59"	13	0.0136744423076923
"X14L.36"	14	0.00855271428571429
"X3L.85"	3	0.017811537037037
"X4L.85"	4	0.012373391556811
"X5L.85"	5	0.0154945529411765
"X6L.85"	6	0.0130742579487179
"X7L.85"	7	0.0158552685714286
"X8L.85"	8	0.0127237803030303
"X9L.85"	9	0.0105878518518519
"X10L.85"	10	0.012410875
"X11L.84"	11	0.00911988636363636
"X12L.63"	12	0.01467875
"X16L.11"	16	0.01022975
"X3L.86"	3	0.0195446533333333
"X4L.86"	4	0.0125286641862955
"X5L.86"	5	0.0156073307692308
"X6L.86"	6	0.012597074127907
"X7L.86"	7	0.0142215918367347
"X8L.86"	8	0.0114309743589744
"X9L.86"	9	0.0114309458689459
"X10L.86"	10	0.0118387307692308
"X11L.85"	11	0.00915968181818182
"X12L.64"	12	0.0157208333333333
"X13L.60"	13	0.00936661538461538
"X3L.87"	3	0.0146586837606838
"X4L.87"	4	0.0127603241401007
"X5L.87"	5	0.0143584510989011
"X6L.87"	6	0.0131944773844641
"X7L.87"	7	0.0142039841269841
"X8L.87"	8	0.0113129227941176
"X9L.87"	9	0.0109033451536643
"X10L.87"	10	0.0123625571428571
"X11L.86"	11	0.0109141168831169
"X12L.65"	12	0.01714025
"X13L.61"	13	0.0103733846153846
"X14L.37"	14	0.005574
"X3L.88"	3	0.0181506833333333
"X4L.88"	4	0.0125704718177807
"X5L.88"	5	0.0145944250746269
"X6L.88"	6	0.0129969994232987
"X7L.88"	7	0.0151633535714286
"X8L.88"	8	0.0133124802631579
"X9L.88"	9	0.0109061367521368
"X10L.88"	10	0.0125435545454545
"X11L.87"	11	0.0130055909090909
"X14L.38"	14	0.0117735
"X16L.12"	16	0.0095505625
"X3L.89"	3	0.0160913333333333
"X4L.89"	4	0.0123154514652015
"X5L.89"	5	0.0153419853968254
"X6L.89"	6	0.0130366116504854
"X7L.89"	7	0.014862903654485
"X8L.89"	8	0.0135672314814815
"X9L.89"	9	0.0116152286324786
"X10L.89"	10	0.01122425
"X11L.88"	11	0.0103624935064935
"X15L.17"	15	0.013507
"X3L.90"	3	0.0208538205128205
"X4L.90"	4	0.012566353965082
"X5L.90"	5	0.0148232583586626
"X6L.90"	6	0.0124460059701493
"X7L.90"	7	0.0136200734693878
"X8L.90"	8	0.0117319048913043
"X9L.90"	9	0.0123697549019608
"X10L.90"	10	0.0127840210526316
"X11L.89"	11	0.0135285757575758
"X12L.66"	12	0.0121649375
"X13L.62"	13	0.0133508461538462
"X14L.39"	14	0.014117
"X17L.6"	17	0.0140860588235294
"X3L.91"	3	0.0156722857142857
"X4L.91"	4	0.012577142753773
"X5L.91"	5	0.0155711594855305
"X6L.91"	6	0.0125446193480547
"X7L.91"	7	0.0143116589861751
"X8L.91"	8	0.0135917388888889
"X9L.91"	9	0.011204
"X10L.91"	10	0.01320935
"X11L.90"	11	0.0111197272727273
"X12L.67"	12	0.0094195
"X3L.92"	3	0.0165515714285714
"X4L.92"	4	0.0123054413612565
"X5L.92"	5	0.0148652867383513
"X6L.92"	6	0.0120937742742743
"X7L.92"	7	0.0141663722943723
"X8L.92"	8	0.0114064791666667
"X9L.92"	9	0.0117763387978142
"X10L.92"	10	0.0122030588235294
"X11L.91"	11	0.00972443181818182
"X12L.68"	12	0.0176520833333333
"X14L.40"	14	0.00591664285714286
"X3L.93"	3	0.0218839791666667
"X4L.93"	4	0.0125174888044157
"X5L.93"	5	0.0150247636923077
"X6L.93"	6	0.0127209292779426
"X7L.93"	7	0.0138732358276644
"X8L.93"	8	0.0113302894736842
"X9L.93"	9	0.0122663131313131
"X10L.93"	10	0.01300254
"X12L.69"	12	0.0167783333333333
"X13L.63"	13	0.00925361538461538
"X3L.94"	3	0.0155941515151515
"X4L.94"	4	0.0126643422675026
"X5L.94"	5	0.0161352658064516
"X6L.94"	6	0.0120513640873016
"X7L.94"	7	0.0136471111111111
"X8L.94"	8	0.0127531052631579
"X9L.94"	9	0.0116996666666667
"X10L.94"	10	0.0121081
"X11L.92"	11	0.010384303030303
"X13L.64"	13	0.0107719230769231
"X14L.41"	14	0.0117483571428571
"X15L.18"	15	0.0141473
"X3L.95"	3	0.0150102941176471
"X4L.95"	4	0.0124452038154664
"X5L.95"	5	0.0150233400544959
"X6L.95"	6	0.0121719832810867
"X7L.95"	7	0.013773
"X8L.95"	8	0.0136114826388889
"X9L.95"	9	0.0112752932098765
"X10L.95"	10	0.0120211636363636
"X11L.93"	11	0.0130115252525253
"X12L.70"	12	0.0153320833333333
"X13L.65"	13	0.0136065384615385
"X3L.96"	3	0.0185096944444444
"X4L.96"	4	0.0126025800299979
"X5L.96"	5	0.0153645445544554
"X6L.96"	6	0.0127899428721174
"X7L.96"	7	0.0149184135338346
"X8L.96"	8	0.0128905416666667
"X9L.96"	9	0.0108018853046595
"X10L.96"	10	0.0115861090909091
"X11L.94"	11	0.0122431590909091
"X12L.71"	12	0.00960238888888889
"X13L.66"	13	0.00990488461538462
"X15L.19"	15	0.0151912666666667
"X3L.97"	3	0.0237020476190476
"X4L.97"	4	0.0123512284317892
"X5L.97"	5	0.0149961657657658
"X6L.97"	6	0.01209179138322
"X7L.97"	7	0.0156059725274725
"X8L.97"	8	0.0132467606382979
"X9L.97"	9	0.0113652121212121
"X10L.97"	10	0.0108368571428571
"X11L.95"	11	0.0117995454545455
"X12L.72"	12	0.0047765
"X13L.67"	13	0.00848942307692308
"X15L.20"	15	0.01347
"X3L.98"	3	0.0209240666666667
"X4L.98"	4	0.0125413957790799
"X5L.98"	5	0.0155997437288136
"X6L.98"	6	0.0130853765432099
"X7L.98"	7	0.0150831321428571
"X8L.98"	8	0.0121957234848485
"X9L.98"	9	0.0118070092592593
"X10L.98"	10	0.010407975
"X11L.96"	11	0.0125312727272727
"X3L.99"	3	0.0192357083333333
"X4L.99"	4	0.0123522901202024
"X5L.99"	5	0.0154231531598513
"X6L.99"	6	0.0124776005128205
"X7L.99"	7	0.0138697932330827
"X8L.99"	8	0.0125262409090909
"X9L.99"	9	0.0106023766937669
"X10L.99"	10	0.0137809
"X11L.97"	11	0.0129177727272727
"X12L.73"	12	0.0131859583333333
"X13L.68"	13	0.009284
